Data,ETo,Rainfall,SM(real),(Rainfall-ETo),DetaSM,WindSpeed,minTemp,maxTemp,pressure,humidity,y=SM(t+1)
2015-04-07T01:00:00Z,4.786556305880418,0.0,64.50980392156862,0.0,NULL,2.0279166666666666,1.6199999999999477,15.883999999999958,1039.8570833333333,83.66666666666667,64.2156862745098
2015-04-08T01:00:00Z,4.369308221444783,0.0,64.2156862745098,-4.369308221444783,-0.2941176470588118,2.5534615384615384,3.67999999999995,14.394999999999982,1037.0253846153846,77.26923076923077,63.82352941176472
2015-04-09T01:00:00Z,4.3945457506588435,0.0,63.82352941176472,-4.3945457506588435,-0.39215686274508954,2.028750000000001,5.423000000000002,16.274,1030.34,79.0,63.03921568627452
2015-04-10T01:00:00Z,4.8305490602431025,0.0,63.03921568627452,-4.8305490602431025,-0.7843137254902004,4.727916666666666,5.4389999999999645,19.113,1020.5358333333332,72.33333333333333,62.549019607843135
2015-04-11T01:00:00Z,3.4523791369341064,1.01,62.549019607843135,-2.4423791369341066,-0.49019607843138147,6.712083333333333,6.6749999999999545,11.439999999999998,1022.0966666666664,65.875,62.74509803921569
2015-04-12T01:00:00Z,4.479104203699888,0.505,62.74509803921569,-3.9741042036998877,0.19607843137255543,7.677500000000003,4.575999999999965,15.074999999999989,1028.1074999999998,65.375,62.54901960784314
2015-04-13T01:00:00Z,4.814624740107112,0.0,62.54901960784314,-4.814624740107112,-0.19607843137254832,3.7754166666666666,1.311999999999955,15.512,1033.5099999999995,76.58333333333333,63.03921568627452
2015-04-14T01:00:00Z,4.544457540525981,0.0,63.03921568627452,-4.544457540525981,0.49019607843137436,5.565833333333333,7.839999999999975,18.760999999999967,1027.7245833333336,69.83333333333333,70.19607843137256
2015-04-15T01:00:00Z,4.623875961031135,0.0,70.19607843137256,-4.623875961031135,7.156862745098039,4.2908333333333335,8.43199999999996,20.095999999999947,1020.9845833333338,68.25,61.372549019607845
2015-04-16T01:00:00Z,4.292026091191814,0.0,61.372549019607845,-4.292026091191814,-8.82352941176471,4.021249999999998,7.1299999999999955,16.74599999999998,1019.807916666667,68.79166666666667,60.7843137254902
2015-04-28T01:00:00Z,3.8721800739857364,0.0,61.274509803921575,-3.8721800739857364,NULL,5.758947368421051,3.9319999999999595,11.006999999999948,1018.7857894736844,57.578947368421055,59.509803921568626
2015-04-29T01:00:00Z,3.609637074910035,1.8684999999999998,59.509803921568626,-1.741137074910035,-1.7647058823529491,6.797999999999999,5.826999999999998,11.327999999999975,1014.9166666666666,74.4,59.31372549019608
2015-04-30T01:00:00Z,3.7333041746656477,0.0,59.31372549019608,-3.7333041746656477,-0.19607843137254832,6.17375,4.911999999999978,11.147999999999968,1013.87375,71.5,58.92156862745099
2015-05-01T01:00:00Z,4.111621680025016,0.0,58.92156862745099,-4.111621680025016,-0.39215686274508954,4.846428571428571,2.9189999999999827,11.58299999999997,1014.7342857142855,62.5,57.64705882352941
2015-05-02T01:00:00Z,4.434135127271805,0.0,57.64705882352941,-4.434135127271805,-1.2745098039215748,6.043749999999999,2.180999999999983,12.857999999999947,1012.4608333333339,71.0,56.372549019607845
2015-05-03T01:00:00Z,3.8201499196079753,6.4135,56.372549019607845,2.5933500803920246,-1.2745098039215677,7.5562499999999995,9.99799999999999,16.050999999999988,1000.3291666666665,92.66666666666667,60.490196078431374
2015-05-04T01:00:00Z,3.7297789635657357,7.221500000000001,60.490196078431374,3.491721036434265,4.117647058823529,5.707499999999999,9.811999999999955,15.75,1005.4394999999998,83.2,90.19607843137256
2015-05-05T01:00:00Z,3.3288215498684885,1.03525,90.19607843137256,-2.2935715498684885,29.70588235294118,9.831999999999999,10.312999999999988,13.962999999999965,997.6020000000001,84.2,65.88235294117648
2015-05-06T01:00:00Z,3.0295291158117985,1.13625,65.88235294117648,-1.8932791158117985,-24.313725490196077,9.683750000000003,8.280999999999949,11.05699999999996,1006.4716666666664,75.125,63.23529411764706
2015-05-07T01:00:00Z,3.5481046130386473,0.07575000000000001,63.23529411764706,-3.472354613038647,-2.64705882352942,4.206521739130435,8.560000000000002,13.979999999999961,1018.9147826086956,72.34782608695652,69.80392156862746
2015-05-08T01:00:00Z,3.5482192538249304,0.0505,69.80392156862746,-3.4977192538249304,6.568627450980401,3.9362500000000007,8.46999999999997,13.935000000000002,1016.1191666666672,78.70833333333333,61.568627450980394
2015-05-09T01:00:00Z,4.146624104662498,1.2625,61.568627450980394,-2.884124104662498,-8.235294117647065,7.32041666666667,7.125,15.258999999999958,1019.0691666666668,71.33333333333333,61.1764705882353
2015-05-10T01:00:00Z,4.849590110085451,0.0,61.1764705882353,-4.849590110085451,-0.39215686274509665,5.3883333333333345,5.183999999999969,18.916999999999973,1024.9399999999998,69.66666666666667,61.568627450980394
2015-05-11T01:00:00Z,4.008007961750638,0.0,61.568627450980394,-4.008007961750638,0.39215686274509665,6.05125,13.736999999999966,20.504999999999995,1020.1524999999997,60.791666666666664,60.00000000000001
2015-05-12T01:00:00Z,3.7666704193501697,0.606,60.00000000000001,-3.16067041935017,-1.5686274509803866,7.140833333333333,9.913999999999987,15.788999999999987,1021.9933333333333,60.75,59.313725490196084
2015-05-13T01:00:00Z,4.279442272003639,0.0,59.313725490196084,-4.279442272003639,-0.6862745098039227,2.5683333333333325,7.146999999999991,16.950999999999965,1022.9575000000004,63.916666666666664,58.13725490196079
2015-05-14T01:00:00Z,3.5606763030901005,6.767000000000001,58.13725490196079,3.2063236969099007,-1.176470588235297,5.700833333333333,5.557999999999993,10.991999999999962,1016.6962499999998,82.79166666666667,71.1764705882353
2015-05-15T01:00:00Z,4.236264402494432,0.0,71.1764705882353,-4.236264402494432,13.039215686274517,3.8516666666666666,5.0429999999999495,14.525999999999954,1024.4504166666663,83.58333333333333,62.54901960784314
2015-05-16T01:00:00Z,4.088337103102388,0.0,62.54901960784314,-4.088337103102388,-8.627450980392162,5.639583333333337,7.212999999999965,15.284999999999968,1027.1687500000003,71.70833333333333,61.9607843137255
2015-05-17T01:00:00Z,4.4017456884328325,0.0,61.9607843137255,-4.4017456884328325,-0.588235294117645,5.140833333333333,6.1059999999999945,16.35699999999997,1025.9508333333333,61.625,61.66666666666667
2015-05-18T01:00:00Z,3.3879913126206875,8.30725,61.66666666666667,4.919258687379312,-0.29411764705882604,6.239565217391304,7.34699999999998,11.867999999999995,1009.9252173913045,84.21739130434783,65.58823529411765
2015-05-19T01:00:00Z,3.139321205494007,1.7169999999999999,65.58823529411765,-1.422321205494007,3.9215686274509807,6.721666666666665,6.493999999999971,10.029999999999973,1008.3329166666668,77.16666666666667,67.15686274509804
2015-05-20T01:00:00Z,4.080564528312574,0.17675000000000002,67.15686274509804,-3.903814528312574,1.5686274509803866,5.650434782608698,5.089999999999975,13.300999999999988,1020.3191304347821,74.91304347826087,65.29411764705884
2015-05-21T01:00:00Z,4.803620187377136,0.0,65.29411764705884,-4.803620187377136,-1.8627450980391984,3.7252173913043474,4.425999999999988,18.226999999999975,1028.7847826086957,69.95652173913044,63.13725490196079
2015-05-22T01:00:00Z,4.675580031122519,0.0,63.13725490196079,-4.675580031122519,-2.156862745098053,4.156250000000001,8.897999999999968,20.890999999999963,1028.26875,69.33333333333333,62.54901960784315
2015-05-23T01:00:00Z,3.490926005193359,0.0,62.54901960784315,-3.490926005193359,-0.5882352941176379,3.8566666666666656,11.118999999999971,16.174999999999955,1027.6974999999998,74.75,62.15686274509805
2015-05-24T01:00:00Z,4.150946582283028,0.07575000000000001,62.15686274509805,-4.075196582283028,-0.39215686274509665,5.204999999999999,8.762999999999977,17.107999999999947,1022.6770833333335,75.70833333333333,61.078431372549026
2015-05-25T01:00:00Z,4.033302220476709,0.0,61.078431372549026,-4.033302220476709,-1.0784313725490264,4.6674999999999995,7.310000000000002,15.220999999999947,1023.1391666666672,75.5,60.29411764705883
2015-05-26T01:00:00Z,4.2520277244448135,0.0,60.29411764705883,-4.2520277244448135,-0.7843137254901933,5.0858333333333325,8.774000000000001,17.742999999999995,1026.902916666667,70.33333333333333,60.196078431372555
2015-05-27T01:00:00Z,4.422999451834748,0.0,60.196078431372555,-4.422999451834748,-0.09803921568627771,5.427083333333333,6.959000000000003,17.19599999999997,1024.4599999999998,68.0,58.33333333333334
2015-05-28T01:00:00Z,3.317332827925674,0.0,58.33333333333334,-3.317332827925674,-1.8627450980392126,5.828749999999999,10.544999999999959,14.657999999999959,1017.1783333333334,62.583333333333336,56.47058823529412
2015-05-29T01:00:00Z,3.5249790956745652,3.25725,56.47058823529412,-0.26772909567456527,-1.8627450980392197,6.270833333333332,6.759999999999991,11.894999999999982,1011.3124999999995,78.04166666666667,60.29411764705883
2015-05-30T01:00:00Z,4.146314680201666,0.0,60.29411764705883,-4.146314680201666,3.82352941176471,4.569166666666667,5.793999999999983,14.524000000000001,1016.4625000000002,71.41666666666667,57.54901960784314
2015-05-31T01:00:00Z,4.182020974451785,2.323,57.54901960784314,-1.8590209744517847,-2.7450980392156907,6.288499999999999,6.389999999999986,14.989999999999952,1007.3877999999999,80.1,56.86274509803922
2015-06-01T01:00:00Z,4.74126117186607,0.0,56.86274509803922,-4.74126117186607,-0.6862745098039227,5.458571428571429,5.5499999999999545,18.319999999999993,1006.6280952380954,66.9047619047619,56.1764705882353
2015-06-08T01:00:00Z,4.863938331596003,0.0,54.90196078431373,-4.863938331596003,NULL,4.128333333333332,5.989999999999952,19.989999999999952,1035.0262500000001,66.08333333333333,73.1372549019608
2015-06-09T01:00:00Z,4.671425578983558,0.0,73.1372549019608,-4.671425578983558,18.235294117647072,5.279166666666668,2.9899999999999523,15.549999999999955,1032.9166666666667,76.75,72.94117647058825
2015-06-10T01:00:00Z,4.854116812097261,0.0,72.94117647058825,-4.854116812097261,-0.19607843137255543,4.9750000000000005,4.989999999999952,18.879999999999995,1028.4583333333333,72.5,73.43137254901963
2015-06-11T01:00:00Z,5.116978345063141,0.0,73.43137254901963,-5.116978345063141,0.49019607843138147,4.428750000000002,5.989999999999952,22.20999999999998,1021.8720833333335,70.125,74.11764705882354
2015-06-12T01:00:00Z,4.7534415760254625,0.2525,74.11764705882354,-4.500941576025462,0.6862745098039085,4.477499999999999,12.275999999999954,24.05499999999995,1012.8537499999998,64.29166666666667,74.50980392156863
2015-06-13T01:00:00Z,3.1030606962040657,6.18625,74.50980392156863,3.0831893037959346,0.39215686274509665,3.773750000000001,14.049999999999955,17.482999999999947,1011.6554166666666,94.625,84.2156862745098
2015-06-14T01:00:00Z,3.990586432293207,0.0,84.2156862745098,-3.990586432293207,9.705882352941174,4.885000000000001,9.272999999999968,16.71799999999996,1017.6725,90.45833333333333,81.27450980392157
2015-06-15T01:00:00Z,4.894428292672236,0.0,81.27450980392157,-4.894428292672236,-2.941176470588232,3.239999999999999,7.453999999999951,21.659999999999968,1024.4204166666666,72.20833333333333,79.70588235294119
2015-06-16T01:00:00Z,5.113826647128011,0.0,79.70588235294119,-5.113826647128011,-1.5686274509803866,2.695833333333334,8.319999999999993,24.42999999999995,1024.75,69.875,78.23529411764707
2015-06-17T01:00:00Z,5.200343612711975,0.35350000000000004,78.23529411764707,-4.846843612711974,-1.470588235294116,5.870833333333334,9.989999999999952,25.549999999999955,1021.8333333333334,83.58333333333333,77.64705882352942
2015-06-18T01:00:00Z,4.180543050122617,0.0,77.64705882352942,-4.180543050122617,-0.5882352941176521,5.0183333333333335,9.989999999999952,18.389999999999986,1022.9391666666669,71.16666666666667,76.47058823529412
2015-06-19T01:00:00Z,4.059870735532245,0.0,76.47058823529412,-4.059870735532245,-1.1764705882353041,5.098333333333332,10.688999999999965,18.310000000000002,1025.2241666666669,70.79166666666667,76.76470588235296
2015-06-20T01:00:00Z,3.3505302012723406,9.7465,76.76470588235296,6.395969798727659,0.29411764705884025,2.85,12.192999999999984,16.758999999999958,1024.1978260869564,88.6086956521739,85.09803921568628
2015-06-21T01:00:00Z,3.2640108943546537,0.0,85.09803921568628,-3.2640108943546537,8.333333333333329,5.3237499999999995,12.603999999999985,16.45999999999998,1019.3645833333334,84.375,81.47058823529412
2015-06-22T01:00:00Z,3.163916493118574,0.0,81.47058823529412,-3.163916493118574,-3.627450980392169,5.678947368421053,11.033999999999992,14.57899999999995,1015.5389473684212,76.73684210526316,79.41176470588236
2015-06-23T01:00:00Z,4.306500767564605,0.0,79.41176470588236,-4.306500767564605,-2.058823529411754,3.3454166666666665,10.033999999999992,19.516999999999996,1021.4175,75.125,78.72549019607843
2015-06-24T01:00:00Z,4.254314327175702,0.0,78.72549019607843,-4.254314327175702,-0.6862745098039369,3.5944444444444446,12.199999999999989,21.00799999999998,1023.5949999999999,69.22222222222223,78.8235294117647
2015-06-25T01:00:00Z,3.740950793093023,0.0,78.8235294117647,-3.740950793093023,0.09803921568627061,2.44,10.786000000000001,17.232999999999947,1025.0542857142857,76.85714285714286,79.01960784313727
2015-06-26T01:00:00Z,5.22863530927074,2.9795000000000003,79.01960784313727,-2.24913530927074,0.19607843137256964,3.766666666666666,11.989999999999952,27.769999999999982,1015.6666666666666,57.333333333333336,82.84313725490196
2015-06-27T01:00:00Z,3.24619504443377,0.0,82.84313725490196,-3.24619504443377,3.823529411764696,5.1,15.989999999999952,19.589999999999975,1019.0,77.0,79.6078431372549
2015-06-28T01:00:00Z,3.931880143698104,1.23725,79.6078431372549,-2.694630143698104,-3.235294117647058,4.016666666666667,11.989999999999952,18.989999999999952,1019.0,82.16666666666667,78.921568627451
2015-06-29T01:00:00Z,5.1548974590710595,0.0,78.921568627451,-5.1548974590710595,-0.6862745098039085,3.0300000000000007,10.989999999999952,26.659999999999968,1021.2916666666666,64.16666666666667,79.6078431372549
2015-06-30T01:00:00Z,5.7017385442040585,0.0,79.6078431372549,-5.7017385442040585,0.6862745098039085,3.3920833333333333,9.989999999999952,31.489999999999952,1018.5,56.625,80.29411764705883
2015-07-01T01:00:00Z,5.878736387291887,0.0,80.29411764705883,-5.878736387291887,0.6862745098039227,4.375,16.989999999999952,36.099999999999966,1012.2083333333334,54.041666666666664,80.78431372549021
2015-07-02T01:00:00Z,4.773861309956563,0.0,80.78431372549021,-4.773861309956563,0.49019607843138147,2.9428571428571435,14.989999999999952,26.659999999999968,1016.7142857142857,80.14285714285714,79.6078431372549
2015-07-03T01:00:00Z,5.590928223225126,2.7775,79.6078431372549,-2.8134282232251264,-1.1764705882353041,3.8071428571428574,7.989999999999952,28.879999999999995,1021.6428571428571,67.78571428571429,86.76470588235294
2015-07-04T01:00:00Z,5.1471223131242825,0.707,86.76470588235294,-4.440122313124283,7.156862745098039,4.1000000000000005,13.989999999999952,28.319999999999993,1017.7058823529412,76.76470588235294,83.0392156862745
2015-07-05T01:00:00Z,4.995688543478811,0.32825000000000004,83.0392156862745,-4.667438543478811,-3.7254901960784395,3.512380952380952,9.989999999999952,24.42999999999995,1017.3333333333334,72.33333333333333,80.68627450980392
2015-07-06T01:00:00Z,5.13895996185941,0.0,80.68627450980392,-5.13895996185941,-2.35294117647058,3.9315789473684206,9.989999999999952,25.549999999999955,1017.1578947368421,63.421052631578945,80.19607843137256
2015-07-07T01:00:00Z,4.413647006596804,0.0,80.19607843137256,-4.413647006596804,-0.49019607843136725,5.016666666666667,12.989999999999952,22.289999999999964,1009.25,80.25,79.6078431372549
2015-07-08T01:00:00Z,4.619671516860139,0.0,79.6078431372549,-4.619671516860139,-0.5882352941176521,6.445454545454546,10.989999999999952,21.659999999999968,1011.1818181818181,76.86363636363636,78.43137254901961
2015-07-09T01:00:00Z,5.100467259153593,0.0,78.43137254901961,-5.100467259153593,-1.17647058823529,3.8058823529411776,8.879999999999995,24.42999999999995,1021.7058823529412,60.11764705882353,79.01960784313727
2015-07-10T01:00:00Z,5.5551656116734796,0.0,79.01960784313727,-5.5551656116734796,0.5882352941176521,2.890000000000001,9.989999999999952,29.989999999999952,1018.65,53.55,80.3921568627451
2015-07-11T01:00:00Z,4.9885982926848005,0.0,80.3921568627451,-4.9885982926848005,1.3725490196078312,5.179166666666667,12.989999999999952,26.099999999999966,1016.2916666666666,61.166666666666664,80.09803921568627
2015-07-12T01:00:00Z,4.475856702181475,0.0,80.09803921568627,-4.475856702181475,-0.29411764705882604,5.003000000000001,13.389999999999986,22.989999999999952,1015.74405,83.3,80.19607843137254
2015-07-13T01:00:00Z,3.8576326736751034,0.0,80.19607843137254,-3.8576326736751034,0.09803921568627061,5.077777777777779,14.389999999999986,20.549999999999955,1014.1111111111111,94.27777777777777,82.74509803921569
2015-07-14T01:00:00Z,4.1198589163117365,0.0,82.74509803921569,-4.1198589163117365,2.5490196078431495,4.578571428571429,15.389999999999986,22.769999999999982,1016.0,92.0,82.05882352941178
2015-07-15T01:00:00Z,4.642179921676125,0.0,82.05882352941178,-4.642179921676125,-0.6862745098039085,3.4388888888888896,11.989999999999952,23.319999999999993,1018.0555555555555,78.61111111111111,80.49019607843137
2015-07-16T01:00:00Z,5.105910031035709,0.0,80.49019607843137,-5.105910031035709,-1.568627450980415,5.441666666666667,10.989999999999952,25.549999999999955,1015.5,66.875,80.78431372549021
2015-07-17T01:00:00Z,4.119715364833111,0.0,80.78431372549021,-4.119715364833111,0.29411764705884025,5.833333333333333,14.189999999999998,21.489999999999952,1013.3333333333334,60.666666666666664,80.3921568627451
2015-07-18T01:00:00Z,5.186859419167316,0.0,80.3921568627451,-5.186859419167316,-0.39215686274511086,4.245499999999999,10.289999999999964,26.099999999999966,1014.65,58.7,80.19607843137254
2015-07-19T01:00:00Z,4.340053908421501,0.0,80.19607843137254,-4.340053908421501,-0.19607843137255543,2.184615384615385,12.389999999999986,21.989999999999952,1010.5384615384615,72.61538461538461,79.70588235294117
2015-07-20T01:00:00Z,3.3322872416428684,0.0,79.70588235294117,-3.3322872416428684,-0.49019607843136725,1.8039999999999998,8.989999999999952,13.789999999999964,1010.6,67.0,79.90196078431373
2015-07-21T01:00:00Z,3.7406218531628848,0.0,79.90196078431373,-3.7406218531628848,0.19607843137255543,5.466666666666666,14.989999999999952,20.489999999999952,1013.0,65.66666666666667,80.0
2015-07-22T01:00:00Z,5.0288281593183655,0.0,80.0,-5.0288281593183655,0.09803921568627061,4.552499999999999,9.989999999999952,24.42999999999995,1013.6666666666666,68.875,78.82352941176471
2015-07-23T01:00:00Z,4.907939737802965,0.0,78.82352941176471,-4.907939737802965,-1.17647058823529,3.2278260869565223,7.989999999999952,22.20999999999998,1016.0869565217391,67.82608695652173,78.921568627451
2015-07-24T01:00:00Z,3.8532638716785157,0.0,78.921568627451,-3.8532638716785157,0.09803921568628482,4.066956521739131,11.099999999999966,17.789999999999964,1009.4782608695652,91.08695652173913,78.52941176470588
2015-08-04T01:00:00Z,4.64354748705063,0.0,84.11764705882354,-4.64354748705063,NULL,4.852380952380951,9.989999999999952,21.389999999999986,1012.047619047619,70.04761904761905,84.2156862745098
2015-08-05T01:00:00Z,4.3191381071047426,0.101,84.2156862745098,-4.218138107104743,0.09803921568627061,2.8956521739130436,12.989999999999952,22.20999999999998,1012.8695652173913,77.43478260869566,83.52941176470588
2015-08-06T01:00:00Z,5.042681663302297,0.0,83.52941176470588,-5.042681663302297,-0.6862745098039227,4.1916666666666655,11.989999999999952,26.089999999999975,1012.3333333333334,71.79166666666667,83.03921568627452
2015-08-07T01:00:00Z,5.079456979297032,0.0,83.03921568627452,-5.079456979297032,-0.49019607843136725,2.053333333333334,9.989999999999952,25.549999999999955,1017.9166666666666,67.91666666666667,82.94117647058823
2015-08-08T01:00:00Z,5.135974463930413,0.0,82.94117647058823,-5.135974463930413,-0.09803921568628482,2.462916666666667,10.989999999999952,26.659999999999968,1022.6666666666666,71.41666666666667,82.84313725490196
2015-09-02T01:00:00Z,4.7696016809709265,0.25250000000000006,94.41176470588236,-4.517101680970926,NULL,3.4249999999999994,6.989999999999952,19.42999999999995,1017.125,85.625,92.54901960784314
2015-09-03T01:00:00Z,4.418056422680795,0.0,92.54901960784314,-4.418056422680795,-1.8627450980392268,3.9791666666666647,7.989999999999952,17.769999999999982,1015.4583333333334,84.20833333333333,90.88235294117648
2015-09-04T01:00:00Z,4.212461743408124,0.0,90.88235294117648,-4.212461743408124,-1.6666666666666572,4.170833333333332,8.989999999999952,17.389999999999986,1017.0416666666666,77.125,90.58823529411765
2015-09-05T01:00:00Z,4.647349686547712,0.101,90.58823529411765,-4.546349686547712,-0.29411764705882604,4.016666666666666,4.989999999999952,16.659999999999968,1021.4583333333334,84.33333333333333,87.35294117647058
